{
  "required": true,
  "minVersion": "0.8",
  "package": "net.sssubtlety.inventory_control_tweaks.mixin",
  "compatibilityLevel": "JAVA_8",
  "client": [
    "ClientPlayerInteractionManagerMixin",
    "CraftingInventoryAccessor",
    "CreativeInventoryScreenMixin",
    "CreativeSlotAccessor",
    "CreativeSlotEmptyImplementer",
    "HandledScreenMouseClickedMixin",
    "HandledScreenMouseDraggedMixin",
    "HandledScreenMouseReleasedMixin",
    "LivingEntityAccessor",
    "MinecraftClientMixin",
    "SlotAccessor"
  ],
  "injectors": {
    "defaultRequire": 1
  }
}
